*** Variables ***
### Enter a variable here                                       e.g     variable-name                       value


*** Keywords ***
### Enter a keyword here                                        e.g     Keyword Name

